Country level visualisation for Mainland China
…
Extracting only recent data - total per region

Then, here, we get the latest records for each subnational unit.

chn_recent_region <- connect_oxcovid19() %>%
  get_table(tbl_name = "epidemiology") %>%
  filter(source == "CHN_ICL",
         !is.na(adm_area_1)) %>%
  group_by(adm_area_1) %>%
  filter(as.Date(date) == max(as.Date(date), na.rm = TRUE)) %>%
  select(date, country, adm_area_1, confirmed, recovered, dead, gid) %>%
  collect()

#> # A tibble: 31 x 7
#> # Groups:   adm_area_1 [31]
#>    adm_area_1 date       country confirmed recovered  dead gid       
#>    <chr>      <date>     <chr>       <int>     <int> <int> <pq__text>
#>  1 Anhui      2020-03-31 China         990       984     6 {CHN.1_1} 
#>  2 Beijing    2020-04-01 China         580       418     8 {CHN.2_1} 
#>  3 Chongqing  2020-03-31 China         579       570     6 {CHN.3_1} 
#>  4 Fujian     2020-03-30 China         343       295     1 {CHN.4_1} 
#>  5 Gansu      2020-03-31 China         137       127     2 {CHN.5_1} 
#>  6 Guangdong  2020-03-31 China        1501      1357     8 {CHN.6_1} 
#>  7 Guangxi    2020-03-31 China         255       250     2 {CHN.7_1} 
#>  8 Guizhou    2020-03-31 China         147       144     2 {CHN.8_1} 
#>  9 Hainan     2020-03-30 China         168       162     6 {CHN.9_1} 
#> 10 Hebei      2020-03-30 China         321       310     6 {CHN.10_1}
#> # … with 21 more rows
…
## Load sf package for spatial objects
library(sf)

chn_recent_region <- chn_recent_region %>%
  mutate(gid = as.character(stringr::str_remove_all(string = gid, 
                                                    pattern = "\\{|\\}"))) %>%
  left_join(y = chn_admin_1, by = "gid") %>%
  st_as_sf()

#> Simple feature collection with 31 features and 20 fields
#> geometry type:  GEOMETRY
#> dimension:      XY
#> bbox:           xmin: 73.5577 ymin: 18.15931 xmax: 134.7716 ymax: 53.56004
#> CRS:            EPSG:4326
#> # A tibble: 31 x 21
#>    adm_area_1.x date       country.x confirmed recovered  dead gid   country.y
#>    <chr>        <date>     <chr>         <int>     <int> <int> <chr> <chr>    
#>  1 Anhui        2020-03-31 China           990       984     6 CHN.… China    
#>  2 Beijing      2020-04-01 China           580       418     8 CHN.… China    
#>  3 Chongqing    2020-03-31 China           579       570     6 CHN.… China    
#>  4 Fujian       2020-03-30 China           343       295     1 CHN.… China    
#>  5 Gansu        2020-03-31 China           137       127     2 CHN.… China    
#>  6 Guangdong    2020-03-31 China          1501      1357     8 CHN.… China    
#>  7 Guangxi      2020-03-31 China           255       250     2 CHN.… China    
#>  8 Guizhou      2020-03-31 China           147       144     2 CHN.… China    
#>  9 Hainan       2020-03-30 China           168       162     6 CHN.… China    
#> 10 Hebei        2020-03-30 China           321       310     6 CHN.… China    
#> # … with 21 more rows, and 13 more variables: countrycode <chr>,
#> #   countrycode_alpha2 <chr>, adm_level <int>, adm_area_1.y <chr>,
#> #   adm_area_1_code <chr>, adm_area_2 <chr>, adm_area_2_code <chr>,
#> #   adm_area_3 <chr>, adm_area_3_code <chr>, latitude <dbl>, longitude <dbl>,
#> #   properties <pq_jsonb>, geometry <GEOMETRY [°]>
…
